<svg xmlns="http://www.w3.org/2000/svg" width="195.817" height="86.273" viewBox="0 0 195.817 86.273">
  <g id="Group_1122" data-name="Group 1122" transform="translate(-189.183 -39.727)">
    <text id="TECHNOLOGIES" transform="translate(190 123)" fill="#021925" font-size="16" font-family="Hallosans-Light, Hallo sans" font-weight="300" letter-spacing="0.678em"><tspan x="0" y="0">TECHNOLOGIES</tspan></text>
    <g id="Group_293" data-name="Group 293" transform="translate(190 39.727)">
      <g id="Group_287" data-name="Group 287" transform="translate(0.012 0)">
        <path id="Path_3105" data-name="Path 3105" d="M353.936,793.755s8.647-14.915,18.4-28.031v11.82s-6.7,11.366-18.549,28.344" transform="translate(-324.051 -747.005)" fill="#071924"/>
        <path id="Path_3106" data-name="Path 3106" d="M577.962,737.895c-.067-.067-.067-.2-.133-.267a4.2,4.2,0,0,0-.133-.467l-.733-1.4c0-.067-.067-.133-.133-.267a13.781,13.781,0,0,0-4.4-4.8,16.733,16.733,0,0,0-9.866-2.8c-5.333.067-9.6.446-12.733,3.579v11.82a9.615,9.615,0,0,1,7.466-3.333,8.532,8.532,0,0,1,6.466,2.533,10.02,10.02,0,0,1,2.333,6.933V774.56h13V743.894A22.745,22.745,0,0,0,577.962,737.895Z" transform="translate(-501.548 -712.755)" fill="#4a398e"/>
        <path id="Path_3107" data-name="Path 3107" d="M955.232,574.749a6.734,6.734,0,0,1-1.933,4.933,6.279,6.279,0,0,1-4.8,1.867,6.14,6.14,0,0,1-4.733-1.933,6.635,6.635,0,0,1-1.867-4.867,6.739,6.739,0,0,1,1.867-5,7.019,7.019,0,0,1,9.533,0A6.783,6.783,0,0,1,955.232,574.749Zm-.533,12.2v42.932H942.432V586.949Z" transform="translate(-856.521 -567.883)" fill="#4a398e"/>
        <path id="Path_3108" data-name="Path 3108" d="M1194.057,581.975V642.64h-12.6V581.975Zm30.932,60.665-3.067-5.267,3.067,5.267h-12.6l-16.133-27.533,15.866-16.4h14.333l-15.666,16.4-.467.533,11.8,18.933,1.733,2.8,3.133,5.267Z" transform="translate(-1073.414 -580.642)" fill="#4a398e"/>
        <path id="Path_3109" data-name="Path 3109" d="M1625.046,745.368h17.6a10.484,10.484,0,0,0-2.933-7.333,9.91,9.91,0,0,0-7.266-2.733,10.188,10.188,0,0,0-7.2,2.733c-1.867,1.8-2.8,4.2-3.6,7.333a15.911,15.911,0,0,0,.267,7.8,11.679,11.679,0,0,0,4.267,6.8,11.952,11.952,0,0,0,7.6,2.466,16.683,16.683,0,0,0,11.733-4.866l6.933,7a22.97,22.97,0,0,1-8.533,6.066,28.665,28.665,0,0,1-11.2,2.133,26.6,26.6,0,0,1-12.733-2.933,20.645,20.645,0,0,1-8.467-8.266,27.12,27.12,0,0,1,.067-24.666,21.047,21.047,0,0,1,8.4-8.333,25.074,25.074,0,0,1,12.4-2.933c7.4,0,13.067,2.133,16.933,6.4,3.867,4.333,5.8,10.266,5.8,17.933,0,1.4-.067,2.467-.067,3.2h-30C1624.713,753.035,1623.113,748.035,1625.046,745.368Z" transform="translate(-1460.124 -710.71)" fill="#4a398e"/>
        <rect id="Rectangle_761" data-name="Rectangle 761" width="13.333" height="46.465" transform="translate(32.332 15.583)" fill="#4a398e"/>
        <path id="Path_3110" data-name="Path 3110" d="M61.54,763.519a8.348,8.348,0,0,1-6.533-2.533,9.635,9.635,0,0,1-2.4-6.933V728.72H39.541v30.932a23.267,23.267,0,0,0,1.133,6c.067.067.067.2.133.267l.2.467a13.313,13.313,0,0,0,.667,1.4c.067.067.067.2.133.267a14.729,14.729,0,0,0,4.4,4.866,17.239,17.239,0,0,0,9.933,2.8c5.4-.067,10.4-.533,13.133-3.333l.14-12.133A10.314,10.314,0,0,1,61.54,763.519Z" transform="translate(-39.541 -713.502)" fill="#4a398e"/>
      </g>
      <g id="Group_292" data-name="Group 292" transform="translate(0 15.214)">
        <g id="metade_u" data-name="metade u">
          <line id="Line_1" data-name="Line 1" x2="10.397" y2="10.291" transform="translate(2.609 0.072)" fill="none" stroke="#fff" stroke-linecap="round" stroke-miterlimit="10" stroke-width="1"/>
          <path id="Path_3111" data-name="Path 3111" d="M162.018,754.421l-1.556,1.665,1.559,3.77" transform="translate(-149.01 -751.986)" fill="none" stroke="#fff" stroke-linecap="round" stroke-miterlimit="10" stroke-width="1"/>
          <path id="Path_3112" data-name="Path 3112" d="M50.829,729.443l-5.006,2.322-4.948,5.191,5.035,1.26,4.481-1.807-1.27,5.346,4.592,8.542" transform="translate(-40.737 -729.371)" fill="none" stroke="#fff" stroke-linecap="round" stroke-miterlimit="10" stroke-width="1"/>
          <path id="Path_3113" data-name="Path 3113" d="M53.939,823.146l-3.375,5.114-9.439-.547,4.392-9.045-4.176-9.585" transform="translate(-40.964 -801.476)" fill="none" stroke="#fff" stroke-linecap="round" stroke-miterlimit="10" stroke-width="1"/>
          <path id="Path_3114" data-name="Path 3114" d="M39.967,1039.5l5.951,1.383.588,13.263" transform="translate(-39.915 -1010.088)" fill="none" stroke="#fff" stroke-linecap="round" stroke-miterlimit="10" stroke-width="1"/>
          <path id="Path_3115" data-name="Path 3115" d="M42.175,1028.578l11.326,3.769,1.608-8.972" transform="translate(-41.915 -995.492)" fill="none" stroke="#fff" stroke-linecap="round" stroke-miterlimit="10" stroke-width="1"/>
          <path id="Path_3116" data-name="Path 3116" d="M49.922,1114.2l9.729,3.771,3.967,6.553,7.626-4.746,7.45-1.376" transform="translate(-48.928 -1077.72)" fill="none" stroke="#fff" stroke-linecap="round" stroke-miterlimit="10" stroke-width="1"/>
          <path id="Path_3117" data-name="Path 3117" d="M220.587,1087.559l-.563,4.749,8.849,7.12" transform="translate(-202.935 -1053.603)" fill="none" stroke="#fff" stroke-linecap="round" stroke-miterlimit="10" stroke-width="1"/>
          <path id="Path_3118" data-name="Path 3118" d="M290.87,1076.25l1.149,5.239-6.326-3.325" transform="translate(-262.391 -1043.365)" fill="none" stroke="#fff" stroke-linecap="round" stroke-miterlimit="10" stroke-width="1"/>
          <g id="Group_289" data-name="Group 289">
            <circle id="Ellipse_1206" data-name="Ellipse 1206" cx="0.976" cy="0.976" r="0.976" transform="translate(8.647 6.194)" fill="#fff"/>
            <g id="Group_288" data-name="Group 288">
              <circle id="Ellipse_1207" data-name="Ellipse 1207" cx="0.976" cy="0.976" r="0.976" transform="translate(4.187 1.46)" fill="#fff"/>
              <path id="Path_3119" data-name="Path 3119" d="M135.69,728.683s0,0,0,0a.976.976,0,1,0,1.951,0s0,0,0,0Z" transform="translate(-126.581 -728.683)" fill="#fff"/>
              <path id="Path_3120" data-name="Path 3120" d="M39.955,798.2a.972.972,0,0,0-.376.075v1.8a.976.976,0,1,0,.376-1.876Z" transform="translate(-39.564 -791.622)" fill="#fff"/>
              <circle id="Ellipse_1208" data-name="Ellipse 1208" cx="0.976" cy="0.976" r="0.976" transform="translate(4.187 7.8)" fill="#fff"/>
              <circle id="Ellipse_1209" data-name="Ellipse 1209" cx="0.976" cy="0.976" r="0.976" transform="translate(7.4 11.445)" fill="#fff"/>
              <circle id="Ellipse_1210" data-name="Ellipse 1210" cx="0.976" cy="0.976" r="0.976" transform="translate(3.42 16.193)" fill="#fff"/>
              <path id="Path_3121" data-name="Path 3121" d="M168.185,946.318h0a.976.976,0,1,0,0,1.951h0Z" transform="translate(-155.113 -925.726)" fill="#fff"/>
              <circle id="Ellipse_1211" data-name="Ellipse 1211" cx="0.976" cy="0.976" r="0.976" transform="translate(8.446 25.808)" fill="#fff"/>
              <circle id="Ellipse_1212" data-name="Ellipse 1212" cx="0.976" cy="0.976" r="0.976" transform="translate(4.997 29.941)" fill="#fff"/>
              <path id="Path_3122" data-name="Path 3122" d="M39.453,1030.769v1.951a.976.976,0,0,0,0-1.951Z" transform="translate(-39.45 -1002.187)" fill="#fff"/>
              <circle id="Ellipse_1213" data-name="Ellipse 1213" cx="0.976" cy="0.976" r="0.976" transform="translate(5.174 34.034)" fill="#fff"/>
              <circle id="Ellipse_1214" data-name="Ellipse 1214" cx="0.976" cy="0.976" r="0.976" transform="translate(10.713 35.905)" fill="#fff"/>
              <circle id="Ellipse_1215" data-name="Ellipse 1215" cx="0.976" cy="0.976" r="0.976" transform="translate(5.294 37.583)" fill="#fff"/>
              <circle id="Ellipse_1216" data-name="Ellipse 1216" cx="0.976" cy="0.976" r="0.976" transform="translate(9.738 39.286)" fill="#fff"/>
              <circle id="Ellipse_1217" data-name="Ellipse 1217" cx="0.976" cy="0.976" r="0.976" transform="translate(16.112 37.727)" fill="#fff"/>
              <circle id="Ellipse_1218" data-name="Ellipse 1218" cx="0.976" cy="0.976" r="0.976" transform="translate(20.717 41.471)" fill="#fff"/>
              <circle id="Ellipse_1219" data-name="Ellipse 1219" cx="0.976" cy="0.976" r="0.976" transform="translate(10.477 3.149)" fill="#fff"/>
              <path id="Path_3123" data-name="Path 3123" d="M170.611,1013.579a.975.975,0,1,0,.377,1.91A10.706,10.706,0,0,1,170.611,1013.579Z" transform="translate(-157.446 -986.623)" fill="#fff"/>
              <path id="Path_3124" data-name="Path 3124" d="M39.431,995.62h-.012v1.95h.012a.976.976,0,0,0,0-1.951Z" transform="translate(-39.419 -970.363)" fill="#fff"/>
              <path id="Path_3125" data-name="Path 3125" d="M40.639,1067.768a.942.942,0,0,0-.124.009c.028.231.188,1.546.271,1.93a.975.975,0,0,0-.147-1.939Z" transform="translate(-40.411 -1035.685)" fill="#fff"/>
              <path id="Path_3126" data-name="Path 3126" d="M102.478,1187a.975.975,0,0,0-1.578-1.123A15.261,15.261,0,0,0,102.478,1187Z" transform="translate(-95.083 -1142.329)" fill="#fff"/>
              <path id="Path_3127" data-name="Path 3127" d="M185.575,1214.482a.975.975,0,1,0-1.938-.176C183.9,1214.34,184.915,1214.461,185.575,1214.482Z" transform="translate(-169.992 -1167.502)" fill="#fff"/>
              <path id="Path_3128" data-name="Path 3128" d="M305.146,1203.389a.975.975,0,1,0-1.85.615A17.773,17.773,0,0,0,305.146,1203.389Z" transform="translate(-278.274 -1157.841)" fill="#fff"/>
              <path id="Path_3129" data-name="Path 3129" d="M344.493,1148.049l-.046,0a.976.976,0,1,0,0,1.951h.024Z" transform="translate(-314.703 -1108.368)" fill="#fff"/>
              <path id="Path_3130" data-name="Path 3130" d="M344.737,1121.317l-.052,0a.976.976,0,1,0,0,1.951h.03Z" transform="translate(-314.918 -1084.165)" fill="#fff"/>
              <path id="Path_3131" data-name="Path 3131" d="M275.811,1094.493a.975.975,0,1,0,1.934-.205A12.734,12.734,0,0,1,275.811,1094.493Z" transform="translate(-253.444 -1059.696)" fill="#fff"/>
            </g>
          </g>
        </g>
        <g id="metade_n" data-name="metade n" transform="translate(48.293 0.029)">
          <g id="Group_290" data-name="Group 290">
            <path id="Path_3132" data-name="Path 3132" d="M551.5,759.089l6.642,3.276L550.8,765.4l8.243,2.715,9.615-6.426,10.685,6.809" transform="translate(-550.705 -756.241)" fill="none" stroke="#fff" stroke-linecap="round" stroke-linejoin="round" stroke-width="1"/>
            <path id="Path_3133" data-name="Path 3133" d="M549.83,754.207l12.23-8.783-8.258-4.3" transform="translate(-549.83 -739.977)" fill="none" stroke="#fff" stroke-linecap="round" stroke-linejoin="round" stroke-width="1"/>
            <path id="Path_3134" data-name="Path 3134" d="M639.9,728.987l14.726,5.019.134,11.288,3.949,6.961-2.785,11.54,2.785,8.691-3.954-3.129-8.793,6.1,4.826-8.185-4.881-13.86,3.254-8.059L650.3,739.8l-4.842-1.022-7.548,2.081" transform="translate(-629.578 -728.987)" fill="none" stroke="#fff" stroke-linecap="round" stroke-linejoin="round" stroke-width="1"/>
            <path id="Path_3135" data-name="Path 3135" d="M722.572,907.483l7.1,1.109,5.735-6.047" transform="translate(-706.228 -886.123)" fill="none" stroke="#fff" stroke-linecap="round" stroke-linejoin="round" stroke-width="1"/>
            <path id="Path_3136" data-name="Path 3136" d="M736.023,1015.782l-6.976-1.237-5.89,11.231" transform="translate(-706.758 -987.526)" fill="none" stroke="#fff" stroke-linecap="round" stroke-linejoin="round" stroke-width="1"/>
          </g>
          <g id="Group_291" data-name="Group 291" transform="translate(0.002 0.757)">
            <circle id="Ellipse_1220" data-name="Ellipse 1220" cx="0.971" cy="0.971" r="0.971" transform="translate(6.516 4.357)" fill="#fff"/>
            <circle id="Ellipse_1221" data-name="Ellipse 1221" cx="0.971" cy="0.971" r="0.971" transform="translate(11.066 3.728)" fill="#fff"/>
            <path id="Path_3137" data-name="Path 3137" d="M549.847,815.383v1.942a.971.971,0,0,0,0-1.942Z" transform="translate(-549.847 -807.966)" fill="#fff"/>
            <circle id="Ellipse_1222" data-name="Ellipse 1222" cx="0.971" cy="0.971" r="0.971" transform="translate(3.865 9.018)" fill="#fff"/>
            <circle id="Ellipse_1223" data-name="Ellipse 1223" cx="0.971" cy="0.971" r="0.971" transform="translate(14.896 8.046)" fill="#fff"/>
            <circle id="Ellipse_1224" data-name="Ellipse 1224" cx="0.971" cy="0.971" r="0.971" transform="translate(19.716 9.107)" fill="#fff"/>
            <circle id="Ellipse_1225" data-name="Ellipse 1225" cx="0.971" cy="0.971" r="0.971" transform="translate(16.928 3.728)" fill="#fff"/>
            <circle id="Ellipse_1226" data-name="Ellipse 1226" cx="0.971" cy="0.971" r="0.971" transform="translate(24.154 14.563)" fill="#fff"/>
            <circle id="Ellipse_1227" data-name="Ellipse 1227" cx="0.971" cy="0.971" r="0.971" transform="translate(25.719 17.351)" fill="#fff"/>
            <circle id="Ellipse_1228" data-name="Ellipse 1228" cx="0.971" cy="0.971" r="0.971" transform="translate(22.482 20.6)" fill="#fff"/>
            <circle id="Ellipse_1229" data-name="Ellipse 1229" cx="0.971" cy="0.971" r="0.971" transform="translate(16.529 19.769)" fill="#fff"/>
            <path id="Path_3138" data-name="Path 3138" d="M721.675,977.478h-.007v1.942h.007a.971.971,0,1,0,0-1.942Z" transform="translate(-705.411 -954.724)" fill="#fff"/>
            <circle id="Ellipse_1230" data-name="Ellipse 1230" cx="0.971" cy="0.971" r="0.971" transform="translate(21.281 25.29)" fill="#fff"/>
            <circle id="Ellipse_1231" data-name="Ellipse 1231" cx="0.971" cy="0.971" r="0.971" transform="translate(18.224 30.937)" fill="#fff"/>
            <circle id="Ellipse_1232" data-name="Ellipse 1232" cx="0.971" cy="0.971" r="0.971" transform="translate(25.364 33.059)" fill="#fff"/>
            <circle id="Ellipse_1233" data-name="Ellipse 1233" cx="0.971" cy="0.971" r="0.971" transform="translate(20.166 36.584)" fill="#fff"/>
            <path id="Path_3139" data-name="Path 3139" d="M721.773,1123.643l-.041,0v1.938l.041,0a.971.971,0,0,0,0-1.942Z" transform="translate(-705.469 -1087.059)" fill="#fff"/>
            <path id="Path_3140" data-name="Path 3140" d="M721.934,1209.364a.971.971,0,0,0-.2.021v1.076H722.9a.965.965,0,0,0-.962-1.1Z" transform="translate(-705.469 -1164.67)" fill="#fff"/>
            <circle id="Ellipse_1234" data-name="Ellipse 1234" cx="0.971" cy="0.971" r="0.971" transform="translate(24.217 38.706)" fill="#fff"/>
            <path id="Path_3141" data-name="Path 3141" d="M848.594,1176.492a.971.971,0,1,0-.131,1.932.944.944,0,0,0,.131-.01Z" transform="translate(-819.33 -1134.899)" fill="#fff"/>
            <circle id="Ellipse_1235" data-name="Ellipse 1235" cx="0.971" cy="0.971" r="0.971" transform="translate(26.982 26.261)" fill="#fff"/>
            <path id="Path_3142" data-name="Path 3142" d="M848.55,964.65a.971.971,0,1,0,0,1.921Z" transform="translate(-819.285 -943.1)" fill="#fff"/>
            <circle id="Ellipse_1236" data-name="Ellipse 1236" cx="0.971" cy="0.971" r="0.971" transform="translate(18.619 14.664)" fill="#fff"/>
            <path id="Path_3143" data-name="Path 3143" d="M843.1,848.329a.97.97,0,1,0,.4,1.879A16.475,16.475,0,0,0,843.1,848.329Z" transform="translate(-814.535 -837.795)" fill="#fff"/>
            <path id="Path_3144" data-name="Path 3144" d="M805.68,773.742a.97.97,0,1,0,1.305,1.435A15.985,15.985,0,0,0,805.68,773.742Z" transform="translate(-781.185 -770.265)" fill="#fff"/>
            <path id="Path_3145" data-name="Path 3145" d="M580.459,737.676a.97.97,0,0,0,1.816-.684A14.02,14.02,0,0,0,580.459,737.676Z" transform="translate(-577.563 -736.992)" fill="#fff"/>
            <path id="Path_3146" data-name="Path 3146" d="M629.569,845.636a.971.971,0,1,0-1.921-.2c0,.029,0,.058,0,.087C628.108,845.53,628.931,845.557,629.569,845.636Z" transform="translate(-620.287 -834.294)" fill="#fff"/>
          </g>
        </g>
      </g>
    </g>
  </g>
</svg>
